{
  "@context": "https://www.w3.org/ns/activitystreams",
  "id": "https://example.com/sub/activitypub/outbox/",
  "type": "OrderedCollection",
  "first": "https://example.com/sub/activitypub/outbox/978.json",
  "last": "https://example.com/sub/activitypub/outbox/0.json"
}
